<?xml version="1.0" encoding="utf-8"?>
<!-- Generator: Adobe Illustrator 16.0.0, SVG Export Plug-In . SVG Version: 6.00 Build 0)  -->
<!DOCTYPE svg PUBLIC "-//W3C//DTD SVG 1.1//EN" "http://www.w3.org/Graphics/SVG/1.1/DTD/svg11.dtd">
<svg version="1.1" id="Layer_1" xmlns="http://www.w3.org/2000/svg" xmlns:xlink="http://www.w3.org/1999/xlink" x="0px" y="0px"
	 width="58px" height="39px" viewBox="-117.167 169.167 58 39" enable-background="new -117.167 169.167 58 39"
	 xml:space="preserve">
<polyline fill="none" stroke="#C6C6C5" stroke-width="10" stroke-miterlimit="10" points="-112.633,202.842 -88.135,178.343 
	-63.637,202.842 "/>
</svg>
