<?xml version="1.0" encoding="utf-8"?>
<!-- Generator: Adobe Illustrator 16.0.0, SVG Export Plug-In . SVG Version: 6.00 Build 0)  -->
<!DOCTYPE svg PUBLIC "-//W3C//DTD SVG 1.1//EN" "http://www.w3.org/Graphics/SVG/1.1/DTD/svg11.dtd">
<svg version="1.1" id="Layer_1" xmlns="http://www.w3.org/2000/svg" xmlns:xlink="http://www.w3.org/1999/xlink" x="0px" y="0px"
	 width="145px" height="38px" viewBox="0 0 145 38" enable-background="new 0 0 145 38" xml:space="preserve">
<g>
	<polygon fill="#FFFFFF" points="117.873,0.211 105.785,6.147 129.947,18.103 129.947,30.062 142.047,24.036 142.047,12.174 	"/>
	<g>
		<path fill="#FFFFFF" d="M145,38"/>
	</g>
</g>
<g>
	<path fill="#FFFFFF" d="M13.617,23.365c0,1.068-0.159,2.01-0.477,2.826c-0.318,0.816-0.75,1.498-1.296,2.043
		c-0.547,0.547-1.186,0.957-1.917,1.234c-0.732,0.275-1.513,0.412-2.341,0.412s-1.61-0.137-2.349-0.412
		c-0.738-0.277-1.38-0.688-1.926-1.234c-0.547-0.545-0.981-1.227-1.306-2.043c-0.323-0.816-0.485-1.758-0.485-2.826
		c0-1.066,0.162-2.006,0.485-2.816c0.324-0.81,0.766-1.491,1.323-2.043c0.559-0.552,1.203-0.966,1.936-1.241
		c0.731-0.276,1.506-0.414,2.321-0.414c0.816,0,1.59,0.138,2.322,0.414c0.731,0.275,1.371,0.689,1.917,1.241
		c0.546,0.553,0.981,1.233,1.305,2.043C13.455,21.359,13.617,22.299,13.617,23.365z M3.879,23.365c0,0.686,0.084,1.305,0.252,1.863
		s0.411,1.033,0.729,1.422c0.317,0.391,0.705,0.693,1.161,0.91c0.456,0.215,0.972,0.324,1.548,0.324c0.563,0,1.073-0.109,1.53-0.324
		c0.455-0.217,0.843-0.52,1.16-0.91c0.318-0.389,0.562-0.863,0.729-1.422s0.252-1.178,0.252-1.863c0-0.684-0.084-1.305-0.252-1.863
		c-0.168-0.557-0.411-1.031-0.729-1.422c-0.317-0.389-0.705-0.692-1.16-0.909c-0.457-0.216-0.967-0.323-1.53-0.323
		c-0.576,0-1.092,0.107-1.548,0.323c-0.456,0.217-0.844,0.522-1.161,0.918c-0.318,0.396-0.562,0.871-0.729,1.422
		C3.963,22.064,3.879,22.682,3.879,23.365z"/>
	<path fill="#FFFFFF" d="M23.896,29.324c-0.421,0.107-0.967,0.219-1.639,0.332c-0.672,0.115-1.41,0.172-2.214,0.172
		c-0.756,0-1.389-0.107-1.898-0.324c-0.511-0.217-0.918-0.516-1.225-0.9c-0.306-0.383-0.525-0.842-0.657-1.377
		c-0.132-0.533-0.197-1.119-0.197-1.754v-5.275h2.178v4.932c0,1.01,0.146,1.729,0.441,2.16c0.293,0.434,0.807,0.648,1.538,0.648
		c0.265,0,0.543-0.012,0.838-0.035c0.294-0.025,0.513-0.055,0.656-0.09v-7.615h2.179V29.324z"/>
	<path fill="#FFFFFF" d="M32.211,22.16c-0.18-0.061-0.429-0.123-0.747-0.189s-0.688-0.1-1.106-0.1c-0.24,0-0.495,0.025-0.766,0.072
		c-0.27,0.049-0.459,0.09-0.566,0.127v7.541h-2.179v-8.963c0.42-0.156,0.945-0.303,1.575-0.441S29.751,20,30.519,20
		c0.145,0,0.312,0.01,0.504,0.028c0.192,0.018,0.385,0.041,0.576,0.072c0.192,0.029,0.378,0.064,0.559,0.107
		c0.18,0.041,0.323,0.08,0.432,0.117L32.211,22.16z"/>
	<path fill="#FFFFFF" d="M41.786,27.92c0.816,0,1.41-0.139,1.782-0.414s0.559-0.666,0.559-1.17c0-0.301-0.063-0.559-0.189-0.773
		c-0.126-0.217-0.306-0.412-0.54-0.586s-0.52-0.336-0.854-0.486c-0.337-0.148-0.721-0.297-1.152-0.439
		c-0.432-0.156-0.85-0.328-1.251-0.514c-0.402-0.186-0.756-0.418-1.062-0.693c-0.306-0.275-0.552-0.605-0.737-0.99
		c-0.187-0.383-0.279-0.846-0.279-1.385c0-1.128,0.39-2.014,1.17-2.656s1.842-0.963,3.187-0.963c0.779,0,1.473,0.087,2.078,0.261
		c0.606,0.174,1.083,0.363,1.432,0.567l-0.702,1.836c-0.408-0.229-0.855-0.402-1.341-0.522c-0.486-0.12-0.987-0.18-1.503-0.18
		c-0.612,0-1.089,0.126-1.432,0.378c-0.342,0.252-0.513,0.606-0.513,1.062c0,0.275,0.057,0.514,0.171,0.711s0.276,0.375,0.486,0.531
		s0.456,0.299,0.738,0.432c0.281,0.133,0.591,0.258,0.927,0.379c0.588,0.215,1.112,0.434,1.575,0.656
		c0.461,0.223,0.852,0.486,1.17,0.791c0.317,0.307,0.561,0.666,0.729,1.08s0.252,0.916,0.252,1.504c0,1.129-0.398,2-1.197,2.619
		c-0.798,0.617-1.965,0.926-3.501,0.926c-0.516,0-0.986-0.033-1.412-0.098c-0.427-0.066-0.805-0.148-1.135-0.244
		s-0.615-0.193-0.854-0.297c-0.24-0.102-0.433-0.193-0.576-0.279l0.666-1.854c0.324,0.18,0.762,0.361,1.313,0.541
		C40.341,27.83,41.007,27.92,41.786,27.92z"/>
	<path fill="#FFFFFF" d="M48.033,24.949c0-0.828,0.123-1.553,0.369-2.178c0.245-0.623,0.572-1.143,0.98-1.557
		s0.876-0.727,1.404-0.936c0.527-0.211,1.067-0.316,1.62-0.316c1.296,0,2.307,0.402,3.033,1.207c0.726,0.805,1.089,2.004,1.089,3.6
		c0,0.121-0.004,0.256-0.01,0.406c-0.006,0.148-0.015,0.285-0.026,0.404h-6.21c0.06,0.756,0.326,1.34,0.801,1.754
		c0.474,0.414,1.161,0.621,2.061,0.621c0.528,0,1.011-0.047,1.449-0.143s0.783-0.199,1.035-0.307l0.288,1.781
		c-0.12,0.061-0.285,0.123-0.495,0.189s-0.45,0.127-0.72,0.18c-0.271,0.055-0.562,0.1-0.873,0.135
		c-0.312,0.037-0.63,0.055-0.954,0.055c-0.828,0-1.548-0.123-2.16-0.369s-1.116-0.588-1.512-1.025
		c-0.396-0.438-0.69-0.955-0.882-1.549C48.129,26.309,48.033,25.658,48.033,24.949z M54.351,23.979c0-0.301-0.042-0.586-0.126-0.855
		s-0.207-0.504-0.369-0.703c-0.161-0.197-0.359-0.354-0.594-0.467c-0.233-0.113-0.513-0.172-0.837-0.172
		c-0.336,0-0.63,0.064-0.882,0.189c-0.252,0.127-0.465,0.291-0.639,0.494c-0.175,0.205-0.31,0.439-0.405,0.703
		c-0.097,0.264-0.162,0.533-0.198,0.811H54.351z"/>
	<path fill="#FFFFFF" d="M64.377,22.16c-0.18-0.061-0.429-0.123-0.747-0.189s-0.688-0.1-1.106-0.1c-0.24,0-0.495,0.025-0.766,0.072
		c-0.27,0.049-0.459,0.09-0.566,0.127v7.541h-2.179v-8.963c0.42-0.156,0.945-0.303,1.575-0.441S61.917,20,62.685,20
		c0.145,0,0.312,0.01,0.504,0.028c0.192,0.018,0.385,0.041,0.576,0.072c0.192,0.029,0.378,0.064,0.559,0.107
		c0.18,0.041,0.323,0.08,0.432,0.117L64.377,22.16z"/>
	<path fill="#FFFFFF" d="M69.196,29.611c-0.603-1.234-1.22-2.654-1.853-4.256c-0.633-1.604-1.208-3.322-1.726-5.158h2.322
		c0.133,0.529,0.286,1.096,0.461,1.701c0.175,0.607,0.361,1.213,0.561,1.818c0.198,0.605,0.403,1.193,0.614,1.764
		s0.407,1.084,0.588,1.539c0.181-0.455,0.373-0.969,0.578-1.539c0.204-0.57,0.406-1.158,0.605-1.764
		c0.198-0.605,0.389-1.211,0.569-1.818c0.181-0.605,0.337-1.172,0.47-1.701h2.251c-0.519,1.836-1.094,3.555-1.727,5.158
		c-0.633,1.602-1.25,3.021-1.853,4.256H69.196z"/>
	<path fill="#FFFFFF" d="M78.849,17.444c0,0.408-0.133,0.732-0.396,0.972c-0.264,0.24-0.576,0.36-0.936,0.36
		c-0.372,0-0.69-0.12-0.954-0.36c-0.265-0.239-0.396-0.563-0.396-0.972c0-0.42,0.132-0.75,0.396-0.99
		c0.264-0.239,0.582-0.359,0.954-0.359c0.359,0,0.672,0.12,0.936,0.359C78.716,16.694,78.849,17.024,78.849,17.444z M78.614,29.611
		h-2.178v-9.414h2.178V29.611z"/>
	<path fill="#FFFFFF" d="M81.044,24.914c0-0.695,0.107-1.348,0.324-1.953c0.216-0.605,0.524-1.131,0.927-1.574
		c0.401-0.445,0.891-0.793,1.467-1.045s1.224-0.378,1.944-0.378c0.888,0,1.728,0.162,2.52,0.486l-0.468,1.783
		c-0.252-0.109-0.537-0.199-0.855-0.271c-0.317-0.07-0.656-0.107-1.017-0.107c-0.853,0-1.5,0.268-1.944,0.801
		c-0.443,0.535-0.666,1.287-0.666,2.26c0,0.936,0.21,1.678,0.63,2.223c0.42,0.547,1.128,0.818,2.124,0.818
		c0.372,0,0.738-0.035,1.099-0.107c0.359-0.072,0.672-0.162,0.936-0.27l0.307,1.799c-0.24,0.121-0.604,0.229-1.09,0.324
		c-0.485,0.096-0.986,0.145-1.503,0.145c-0.804,0-1.503-0.123-2.097-0.369s-1.086-0.588-1.476-1.025
		c-0.391-0.438-0.682-0.961-0.873-1.566C81.14,26.279,81.044,25.621,81.044,24.914z"/>
	<path fill="#FFFFFF" d="M89.72,24.949c0-0.828,0.123-1.553,0.369-2.178c0.245-0.623,0.572-1.143,0.98-1.557
		s0.876-0.727,1.404-0.936c0.527-0.211,1.067-0.316,1.62-0.316c1.296,0,2.307,0.402,3.033,1.207c0.726,0.805,1.089,2.004,1.089,3.6
		c0,0.121-0.004,0.256-0.01,0.406c-0.006,0.148-0.015,0.285-0.026,0.404h-6.21c0.06,0.756,0.326,1.34,0.801,1.754
		c0.474,0.414,1.161,0.621,2.061,0.621c0.528,0,1.011-0.047,1.449-0.143s0.783-0.199,1.035-0.307l0.288,1.781
		c-0.12,0.061-0.285,0.123-0.495,0.189s-0.45,0.127-0.72,0.18c-0.271,0.055-0.562,0.1-0.873,0.135
		c-0.312,0.037-0.63,0.055-0.954,0.055c-0.828,0-1.548-0.123-2.16-0.369s-1.116-0.588-1.512-1.025
		c-0.396-0.438-0.69-0.955-0.882-1.549C89.815,26.309,89.72,25.658,89.72,24.949z M96.037,23.979c0-0.301-0.042-0.586-0.126-0.855
		s-0.207-0.504-0.369-0.703c-0.161-0.197-0.359-0.354-0.594-0.467c-0.233-0.113-0.513-0.172-0.837-0.172
		c-0.336,0-0.63,0.064-0.882,0.189c-0.252,0.127-0.465,0.291-0.639,0.494c-0.175,0.205-0.31,0.439-0.405,0.703
		c-0.097,0.264-0.162,0.533-0.198,0.811H96.037z"/>
	<path fill="#FFFFFF" d="M103.058,28.045c0.576,0,0.996-0.068,1.26-0.207c0.264-0.137,0.396-0.373,0.396-0.711
		c0-0.311-0.142-0.568-0.424-0.773c-0.281-0.203-0.746-0.426-1.395-0.666c-0.396-0.145-0.759-0.297-1.089-0.459
		s-0.615-0.352-0.855-0.566c-0.24-0.217-0.429-0.477-0.566-0.783c-0.139-0.307-0.207-0.682-0.207-1.125
		c0-0.863,0.317-1.545,0.954-2.043c0.636-0.498,1.5-0.748,2.592-0.748c0.552,0,1.08,0.052,1.584,0.154s0.882,0.201,1.134,0.297
		l-0.396,1.764c-0.24-0.107-0.547-0.207-0.918-0.297c-0.372-0.09-0.805-0.135-1.297-0.135c-0.443,0-0.804,0.074-1.079,0.225
		c-0.276,0.15-0.414,0.381-0.414,0.693c0,0.156,0.026,0.293,0.081,0.414c0.054,0.119,0.146,0.23,0.278,0.332
		c0.132,0.104,0.307,0.205,0.522,0.307s0.479,0.207,0.792,0.314c0.516,0.193,0.954,0.381,1.313,0.568
		c0.36,0.186,0.657,0.395,0.892,0.629c0.233,0.234,0.404,0.502,0.513,0.801c0.108,0.301,0.162,0.66,0.162,1.08
		c0,0.9-0.333,1.582-0.999,2.043c-0.666,0.463-1.617,0.693-2.854,0.693c-0.827,0-1.493-0.068-1.998-0.207
		c-0.504-0.137-0.857-0.248-1.062-0.332l0.378-1.818c0.324,0.131,0.711,0.258,1.161,0.377
		C101.969,27.986,102.481,28.045,103.058,28.045z"/>
</g>
</svg>
