<?xml version="1.0" encoding="utf-8"?>
<!-- Generator: Adobe Illustrator 16.0.0, SVG Export Plug-In . SVG Version: 6.00 Build 0)  -->
<!DOCTYPE svg PUBLIC "-//W3C//DTD SVG 1.1//EN" "http://www.w3.org/Graphics/SVG/1.1/DTD/svg11.dtd">
<svg version="1.1" id="Layer_1" xmlns="http://www.w3.org/2000/svg" xmlns:xlink="http://www.w3.org/1999/xlink" x="0px" y="0px"
	 width="162px" height="22px" viewBox="0 0 162 22" enable-background="new 0 0 162 22" xml:space="preserve">
<g>
	<g>
		<text transform="matrix(1 0 0 1 0 18.5303)" fill="#323348" font-family="'Ubuntu-Medium'" font-size="14">SLOT BOOKING</text>
	</g>
	<g>
		<path fill="#323348" d="M153.686,15.564c1.707,0.002,3.09,1.383,3.092,3.09v1.238c0,0.34,0.277,0.617,0.619,0.617h3.709
			c0.342,0,0.619-0.277,0.619-0.617V8.763c-0.004-2.39-1.939-4.327-4.328-4.329h-6.184c-0.342,0-0.619,0.277-0.619,0.618v9.893
			c0,0.342,0.277,0.619,0.619,0.619H153.686z M160.488,10.618h-3.711V8.145h3.648c0.041,0.203,0.062,0.41,0.062,0.618V10.618z
			 M157.965,18.037h2.523v1.236h-2.475v-0.619C158.012,18.447,157.996,18.242,157.965,18.037z M153.686,14.326h-1.855V5.671h5.566
			c0.969,0.002,1.877,0.46,2.457,1.237h-6.168c-0.34,0-0.617,0.276-0.617,0.617v3.71c0,0.342,0.277,0.619,0.617,0.619h6.803v4.947
			h-2.896C156.875,15.293,155.355,14.33,153.686,14.326z M154.307,10.618V8.145h1.234v2.473H154.307z"/>
		<rect x="156.777" y="13.09" fill="#323348" width="2.475" height="1.236"/>
		<path fill="#323348" d="M116.361,15.602h-0.848c-0.352,0-0.639-0.285-0.639-0.639s0.287-0.639,0.639-0.639h0.848
			c0.352,0,0.639,0.285,0.639,0.639C116.998,15.316,116.713,15.602,116.361,15.602z"/>
		<path fill="#323348" d="M116.359,18.059h-2.672c-0.352,0-0.639-0.285-0.639-0.639s0.287-0.639,0.639-0.639h2.674
			c0.352,0,0.639,0.285,0.639,0.639C116.998,17.771,116.713,18.059,116.359,18.059z"/>
		<path fill="#323348" d="M116.361,20.516h-5.996c-0.354,0-0.641-0.285-0.641-0.639s0.285-0.641,0.641-0.641h5.996
			c0.352,0,0.639,0.287,0.639,0.641S116.713,20.516,116.361,20.516z"/>
		<path fill="#323348" d="M153.068,16.74c-1.383,0.018-2.49,1.152-2.475,2.533h-1.824c-0.004-1.125-0.766-2.104-1.855-2.385v-1.326
			h2.68V4.434h-21.912c0.074,0.401,0.111,0.814,0.111,1.237h0.566v8.657h-1.445V9.046c-0.291,0.519-0.645,0.997-1.055,1.423v3.859
			h-1.445v-2.708c-0.334,0.2-0.686,0.374-1.053,0.516v2.191h-1.447v-1.805c-0.342,0.053-0.695,0.08-1.055,0.08v1.725h-1.445v-1.877
			c-0.426-0.09-0.84-0.221-1.232-0.387v3.381v0.117v4.33c0,0.34,0.275,0.617,0.617,0.617h2.199c0.217,0.383,0.533,0.697,0.916,0.916
			c1.176,0.67,2.674,0.262,3.344-0.916h2.51c0.219,0.383,0.535,0.697,0.918,0.916c1.174,0.67,2.672,0.262,3.342-0.916h12.139
			c0.219,0.383,0.535,0.697,0.916,0.916c1.176,0.67,2.674,0.262,3.344-0.916h2.512c0.455,0.775,1.291,1.248,2.189,1.236
			c1.383-0.016,2.49-1.148,2.473-2.531C155.584,17.832,154.451,16.725,153.068,16.74z M146.914,5.671h1.443v8.657h-1.443V5.671z
			 M144.414,5.671h1.445v8.657h-1.445V5.671z M141.914,5.671h1.445v8.657h-1.445V5.671z M139.414,5.671h1.443v8.657h-1.443V5.671z
			 M136.914,5.671h1.445v8.657h-1.445V5.671z M134.414,5.671h1.445v8.657h-1.445V5.671z M131.914,5.671h1.445v8.657h-1.445V5.671z
			 M129.414,5.671h1.445v8.657h-1.445V5.671z M123.127,20.51c-0.682,0-1.236-0.555-1.236-1.236s0.555-1.236,1.236-1.236
			c0.684,0,1.236,0.555,1.236,1.236S123.811,20.51,123.127,20.51z M129.9,20.51c-0.686,0-1.238-0.555-1.238-1.236
			s0.553-1.236,1.238-1.236c0.682,0,1.234,0.555,1.234,1.236S130.582,20.51,129.9,20.51z M143.824,19.273h-11.453
			c-0.002-0.436-0.121-0.861-0.344-1.236h12.139C143.945,18.412,143.826,18.838,143.824,19.273z M129.9,16.801
			c-1.367,0-2.475,1.105-2.475,2.473h-1.824c0-1.367-1.107-2.473-2.475-2.473c-1.365,0-2.471,1.105-2.471,2.473h-1.236v-3.711h26.26
			v1.238H129.9z M146.297,20.51c-0.682,0-1.236-0.555-1.236-1.236s0.555-1.236,1.236-1.236c0.684,0,1.236,0.555,1.236,1.236
			S146.98,20.51,146.297,20.51z M153.068,20.51c-0.684,0-1.238-0.555-1.238-1.236s0.555-1.236,1.238-1.236
			c0.682,0,1.238,0.555,1.238,1.236S153.75,20.51,153.068,20.51z"/>
		<path fill="#323348" d="M120.859,0c-3.131,0-5.67,2.539-5.67,5.671c0,3.13,2.539,5.668,5.67,5.668s5.67-2.538,5.67-5.668
			C126.529,2.539,123.99,0,120.859,0z M123.713,8.777c-0.121,0.111-0.273,0.166-0.426,0.166c-0.172,0-0.342-0.069-0.467-0.205
			l-2.592-2.822v-3.55c0-0.348,0.283-0.631,0.631-0.631c0.35,0,0.633,0.283,0.633,0.631v3.058l2.258,2.46
			C123.986,8.141,123.971,8.541,123.713,8.777z"/>
	</g>
</g>
</svg>
